{
  "id": "5dc948d2-e551-4386-a7e9-a482ce5b7d1f",
  "name": "rotateMap",
  "auto": true,
  "contexts": [],
  "responses": [
    {
      "resetContexts": false,
      "action": "",
      "affectedContexts": [],
      "parameters": [],
      "messages": [
        {
          "type": "0",
          "title": "",
          "textToSpeech": "",
          "lang": "en",
          "speech": [
            "Sorry server isn\u0027t responding, is there anything else I can help you with?"
          ],
          "condition": ""
        }
      ],
      "speech": []
    }
  ],
  "priority": 500000,
  "webhookUsed": true,
  "webhookForSlotFilling": false,
  "fallbackIntent": false,
  "events": [],
  "conditionalResponses": [],
  "condition": "",
  "conditionalFollowupEvents": []
}