[
  {
    "id": "6717bd2f-255b-41ca-8bcc-0c5a4dc63daf",
    "data": [
      {
        "text": "Server info",
        "userDefined": false
      }
    ],
    "isTemplate": false,
    "count": 0,
    "lang": "en",
    "updated": 0
  },
  {
    "id": "9df61c3e-fb6d-4fd5-a11c-f0eb51ae7378",
    "data": [
      {
        "text": "Server status",
        "userDefined": false
      }
    ],
    "isTemplate": false,
    "count": 0,
    "lang": "en",
    "updated": 0
  },
  {
    "id": "c01403bf-2749-4030-83cf-c912901737a8",
    "data": [
      {
        "text": "List server info",
        "userDefined": false
      }
    ],
    "isTemplate": false,
    "count": 0,
    "lang": "en",
    "updated": 0
  }
]